{
    "name": "Project.Tests.EditMode",
    "rootNamespace": "",
    "references": [
        "GUID:e65d92e447a11d84a98cb0d580b77859",
        "GUID:6f9126556ea4a784c987e9f2ad2c603d",
        "GUID:2de82cdc478e2a242b7e56386a90ff0e"
    ],
    "includePlatforms": [
        "Editor"
    ],
    "excludePlatforms": [],
    "allowUnsafeCode": false,
    "overrideReferences": false,
    "precompiledReferences": [],
    "autoReferenced": true,
    "defineConstraints": [],
    "versionDefines": [],
    "noEngineReferences": false
}